ProyectoFinalBeta/simulation/qsim/ProyectoFinal.msim.vcd
$comment
	File created using the following command:
		vcd file ProyectoFinal.msim.vcd -direction
$end
$date
	Fri Feb 10 09:21:49 2023
$end
$version
	ModelSim Version 10.1d
$end
$timescale
	1ps
$end
$scope module ProyectoFinal_vlg_vec_tst $end
$var reg 1 ! CLK $end
$var reg 1 " Sensor1 $end
$var reg 1 # Sensor2 $end
$var wire 1 $ Close $end
$var wire 1 % Cont0 $end
$var wire 1 & Cont1 $end
$var wire 1 ' Cont2 $end
$var wire 1 ( Cont3 $end
$var wire 1 ) Open $end
$var wire 1 * Q0 $end
$var wire 1 + Q1 $end
$var wire 1 , Temp $end
$var wire 1 - sampler $end
$scope module i1 $end
$var wire 1 . gnd $end
$var wire 1 / vcc $end
$var wire 1 0 unknown $end
$var tri1 1 1 devclrn $end
$var tri1 1 2 devpor $end
$var tri1 1 3 devoe $end
$var wire 1 4 Q1~output_o $end
$var wire 1 5 Q0~output_o $end
$var wire 1 6 Close~output_o $end
$var wire 1 7 Open~output_o $end
$var wire 1 8 Temp~output_o $end
$var wire 1 9 Cont3~output_o $end
$var wire 1 : Cont2~output_o $end
$var wire 1 ; Cont1~output_o $end
$var wire 1 < Cont0~output_o $end
$var wire 1 = CLK~input_o $end
$var wire 1 > Sensor2~input_o $end
$var wire 1 ? Sensor1~input_o $end
$var wire 1 @ Sensor~combout $end
$var wire 1 A FF0~q $end
$var wire 1 B inst9~combout $end
$var wire 1 C inst1|inst~0_combout $end
$var wire 1 D inst1|inst~feeder_combout $end
$var wire 1 E inst1|inst1~0_combout $end
$var wire 1 F inst1|inst1~feeder_combout $end
$var wire 1 G inst1|inst1~q $end
$var wire 1 H inst1|inst2~0_combout $end
$var wire 1 I inst1|inst2~feeder_combout $end
$var wire 1 J inst1|inst2~q $end
$var wire 1 K inst1|inst3~0_combout $end
$var wire 1 L inst1|inst3~q $end
$var wire 1 M inst1|inst15~combout $end
$var wire 1 N inst1|inst~q $end
$var wire 1 O FF1~0_combout $end
$var wire 1 P FF1~1_combout $end
$var wire 1 Q FF1~q $end
$var wire 1 R inst12~combout $end
$var wire 1 S inst13~combout $end
$var wire 1 T inst14~combout $end
$upscope $end
$upscope $end
$enddefinitions $end
#0
$dumpvars
0!
0"
0#
1$
0%
0&
0'
0(
0)
0*
0+
0,
x-
0.
1/
x0
11
12
13
04
05
16
07
08
09
0:
0;
0<
0=
0>
0?
0@
0A
1B
1C
1D
1E
1F
0G
1H
1I
0J
1K
0L
1M
0N
1O
0P
0Q
0R
0S
0T
$end
#10000
1"
1?
0-
1@
#20000
1!
1=
1-
1A
1R
15
1*
1S
06
17
0$
1)
#30000
1#
1>
0-
#40000
0"
0!
0?
0=
1-
#60000
1!
1=
0-
#80000
0!
0=
1-
#90000
0#
0>
0-
0O
0@
1P
#100000
1!
1=
1-
1Q
0A
0M
0B
14
05
1+
0*
1T
18
1,
#120000
0!
0=
0-
1B
1N
0C
1<
1%
0D
#140000
1!
1=
1-
0B
#160000
1"
1#
0!
1?
1>
0=
0-
1O
1@
1B
0P
0N
1C
0<
0%
1D
1G
0E
1;
1&
0F
#180000
1!
1=
1-
0B
0Q
1A
1M
1B
04
15
0+
1*
0T
08
0,
0G
1E
0;
0&
1F
#200000
0!
0=
0-
#210000
0"
0#
0?
0>
1-
0O
0@
1P
#220000
1!
1=
0-
1Q
0A
0M
0B
14
05
1+
0*
1T
18
1,
#240000
0!
0=
1-
1B
1N
0C
1<
1%
0D
#260000
1!
1=
0-
0B
#280000
0!
0=
1-
1B
0N
1C
0<
0%
1D
1G
0E
1;
1&
0F
#300000
1!
1=
0-
0B
#320000
0!
0=
1-
1B
1N
0C
1<
1%
0D
#340000
1!
1=
0-
0B
#360000
0!
0=
1-
1B
0N
1C
0<
0%
1D
0G
1E
0;
0&
1F
1J
0H
1:
1'
0I
#380000
1!
1=
0-
0B
#400000
0!
0=
1-
1B
1N
0C
1<
1%
0D
#420000
1!
1=
0-
0B
#440000
0!
0=
1-
1B
0N
1C
0<
0%
1D
1G
0E
1;
1&
0F
#460000
1!
1=
0-
0B
#480000
0!
0=
1-
1B
1N
0C
1<
1%
0D
#500000
1!
1=
0-
0B
#520000
0!
0=
1-
1B
0N
1C
0<
0%
1D
0G
1E
0;
0&
1F
0J
1H
0:
0'
1I
1L
0K
19
1(
#540000
1!
1=
0-
0B
#560000
0!
0=
1-
1B
1N
0P
0C
1<
1%
0D
#580000
1!
1=
0-
0B
0Q
0R
1P
1O
1M
1B
04
0+
0T
0S
0P
16
08
07
1$
0,
0)
0N
0L
1C
1K
0<
09
0%
0(
1D
#600000
0!
0=
1-
#620000
1!
1=
0-
#640000
0!
0=
1-
#660000
1!
1=
0-
#680000
0!
0=
1-
#700000
1!
1=
0-
#720000
0!
0=
1-
#740000
1!
1=
0-
#760000
0!
0=
1-
#780000
1!
1=
0-
#800000
0!
0=
1-
#820000
1!
1=
0-
#840000
0!
0=
1-
#860000
1!
1=
0-
#880000
0!
0=
1-
#900000
1!
1=
0-
#920000
0!
0=
1-
#940000
1!
1=
0-
#960000
0!
0=
1-
#980000
1!
1=
0-
